Адреса устройств I2C:

OLED экран: 0x3C
ТАС-считыватель (Амперка): 0x24


Подключение RC522 к ESP32:
-----------------
 MFRC522 | ESP32
-----------------
     SDA | 21
     SCK | 18 +
    MOSI | 23 +
    MISO | 19 +
     IRQ | N/A
     GND | GND +
     RST | 22 +
    3.3V | 3.3V +

***